EESchema Schematic File Version 4
EELAYER 30 0
EELAYER END
$Descr USLetter 11000 8500
encoding utf-8
Sheet 3 7
Title "Pi uSDX Radio Mixer"
Date "2020-09-22"
Rev "0.1"
Comp "Offline Systems LLC"
Comment1 "Andrew Roy Jackman"
Comment2 ""
Comment3 ""
Comment4 ""
$EndDescr
$EndSCHEMATC
