EESchema Schematic File Version 4
EELAYER 30 0
EELAYER END
$Descr A4 11693 8268
encoding utf-8
Sheet 5 7
Title ""
Date ""
Rev ""
Comp ""
Comment1 ""
Comment2 ""
Comment3 ""
Comment4 ""
$EndDescr
$Comp
L Device:C C506
U 1 1 5F72A09F
P 4800 3400
F 0 "C506" H 4915 3446 50  0000 L CNN
F 1 "56p" H 4915 3355 50  0000 L CNN
F 2 "Capacitor_SMD:C_0805_2012Metric" H 4838 3250 50  0001 C CNN
F 3 "~" H 4800 3400 50  0001 C CNN
	1    4800 3400
	1    0    0    -1  
$EndComp
$Comp
L Device:C C505
U 1 1 5F72A733
P 4500 3200
F 0 "C505" V 4248 3200 50  0000 C CNN
F 1 "100n" V 4339 3200 50  0000 C CNN
F 2 "Capacitor_SMD:C_0805_2012Metric" H 4538 3050 50  0001 C CNN
F 3 "~" H 4500 3200 50  0001 C CNN
	1    4500 3200
	0    1    1    0   
$EndComp
$Comp
L Device:C C504
U 1 1 5F72AA58
P 4200 3400
F 0 "C504" H 4315 3446 50  0000 L CNN
F 1 "270p" H 4315 3355 50  0000 L CNN
F 2 "Capacitor_SMD:C_0805_2012Metric" H 4238 3250 50  0001 C CNN
F 3 "~" H 4200 3400 50  0001 C CNN
	1    4200 3400
	1    0    0    -1  
$EndComp
$Comp
L Device:C C502
U 1 1 5F72AE30
P 3000 3400
F 0 "C502" H 3115 3446 50  0000 L CNN
F 1 "680p" H 3115 3355 50  0000 L CNN
F 2 "Capacitor_SMD:C_0805_2012Metric" H 3038 3250 50  0001 C CNN
F 3 "~" H 3000 3400 50  0001 C CNN
	1    3000 3400
	1    0    0    -1  
$EndComp
$Comp
L Device:C C501
U 1 1 5F72B66A
P 2400 3400
F 0 "C501" H 2515 3446 50  0000 L CNN
F 1 "270p" H 2515 3355 50  0000 L CNN
F 2 "Capacitor_SMD:C_0805_2012Metric" H 2438 3250 50  0001 C CNN
F 3 "~" H 2400 3400 50  0001 C CNN
	1    2400 3400
	1    0    0    -1  
$EndComp
$Comp
L Device:L_Core_Ferrite L502
U 1 1 5F72C500
P 3300 3200
F 0 "L502" V 3525 3200 50  0000 C CNN
F 1 "T37-6/24" V 3434 3200 50  0000 C CNN
F 2 "Inductor_THT:L_Toroid_Horizontal_D9.5mm_P15.00mm_Diameter10-5mm_Amidon-T37" H 3300 3200 50  0001 C CNN
F 3 "~" H 3300 3200 50  0001 C CNN
	1    3300 3200
	0    -1   -1   0   
$EndComp
$Comp
L Device:L_Core_Ferrite L503
U 1 1 5F72CFDF
P 3900 3200
F 0 "L503" V 4125 3200 50  0000 C CNN
F 1 "T37-6/21" V 4034 3200 50  0000 C CNN
F 2 "Inductor_THT:L_Toroid_Horizontal_D9.5mm_P15.00mm_Diameter10-5mm_Amidon-T37" H 3900 3200 50  0001 C CNN
F 3 "~" H 3900 3200 50  0001 C CNN
	1    3900 3200
	0    -1   -1   0   
$EndComp
$Comp
L Device:L_Core_Ferrite L504
U 1 1 5F72DAB9
P 4800 2450
F 0 "L504" H 4888 2496 50  0000 L CNN
F 1 "T37-2/16" H 4888 2405 50  0000 L CNN
F 2 "Inductor_THT:L_Toroid_Horizontal_D9.5mm_P15.00mm_Diameter10-5mm_Amidon-T37" H 4800 2450 50  0001 C CNN
F 3 "~" H 4800 2450 50  0001 C CNN
	1    4800 2450
	1    0    0    -1  
$EndComp
$Comp
L Connector:Conn_Coaxial J501
U 1 1 5F72F216
P 1900 3200
F 0 "J501" H 1828 3438 50  0000 C CNN
F 1 "Conn_Coaxial" H 1828 3347 50  0000 C CNN
F 2 "Connector_Coaxial:BNC_Amphenol_031-6575_Horizontal" H 1900 3200 50  0001 C CNN
F 3 " ~" H 1900 3200 50  0001 C CNN
	1    1900 3200
	-1   0    0    -1  
$EndComp
$Comp
L Device:L_Core_Ferrite L501
U 1 1 5F73509A
P 2700 3200
F 0 "L501" V 2925 3200 50  0000 C CNN
F 1 "T37-6/21" V 2834 3200 50  0000 C CNN
F 2 "Inductor_THT:L_Toroid_Horizontal_D9.5mm_P15.00mm_Diameter10-5mm_Amidon-T37" H 2700 3200 50  0001 C CNN
F 3 "~" H 2700 3200 50  0001 C CNN
	1    2700 3200
	0    -1   -1   0   
$EndComp
$Comp
L Device:C C503
U 1 1 5F736090
P 3600 3400
F 0 "C503" H 3715 3446 50  0000 L CNN
F 1 "680p" H 3715 3355 50  0000 L CNN
F 2 "Capacitor_SMD:C_0805_2012Metric" H 3638 3250 50  0001 C CNN
F 3 "~" H 3600 3400 50  0001 C CNN
	1    3600 3400
	1    0    0    -1  
$EndComp
Wire Wire Line
	4050 3200 4200 3200
Wire Wire Line
	4200 3200 4350 3200
Connection ~ 4200 3200
Text GLabel 4950 2850 2    50   Output ~ 0
FILTER_RX
Text GLabel 4950 3200 2    50   Input ~ 0
FILTER_TX
Wire Wire Line
	4200 3200 4200 3250
Wire Wire Line
	2100 3200 2400 3200
Wire Wire Line
	2850 3200 3000 3200
Wire Wire Line
	3450 3200 3600 3200
Wire Wire Line
	4650 3200 4800 3200
Wire Wire Line
	4800 3250 4800 3200
Connection ~ 4800 3200
Wire Wire Line
	4800 3200 4950 3200
Wire Wire Line
	3600 3250 3600 3200
Connection ~ 3600 3200
Wire Wire Line
	3600 3200 3750 3200
Wire Wire Line
	3000 3250 3000 3200
Connection ~ 3000 3200
Wire Wire Line
	3000 3200 3150 3200
Wire Wire Line
	2400 3250 2400 3200
Connection ~ 2400 3200
Wire Wire Line
	2400 3200 2550 3200
Wire Wire Line
	4800 2600 4800 3200
$Comp
L power:+12V #PWR0501
U 1 1 5F74A8FC
P 4800 2250
F 0 "#PWR0501" H 4800 2100 50  0001 C CNN
F 1 "+12V" H 4815 2423 50  0000 C CNN
F 2 "" H 4800 2250 50  0001 C CNN
F 3 "" H 4800 2250 50  0001 C CNN
	1    4800 2250
	1    0    0    -1  
$EndComp
Wire Wire Line
	4800 2250 4800 2300
Wire Wire Line
	4950 2850 4200 2850
Wire Wire Line
	4200 2850 4200 3200
$Comp
L power:Earth #PWR0502
U 1 1 5F74DEB5
P 4800 3650
F 0 "#PWR0502" H 4800 3400 50  0001 C CNN
F 1 "Earth" H 4800 3500 50  0001 C CNN
F 2 "" H 4800 3650 50  0001 C CNN
F 3 "~" H 4800 3650 50  0001 C CNN
	1    4800 3650
	1    0    0    -1  
$EndComp
Wire Wire Line
	4800 3650 4800 3600
Wire Wire Line
	4800 3600 4200 3600
Wire Wire Line
	4200 3600 4200 3550
Connection ~ 4800 3600
Wire Wire Line
	4800 3600 4800 3550
Wire Wire Line
	3600 3550 3600 3600
Wire Wire Line
	3600 3600 4200 3600
Connection ~ 4200 3600
Wire Wire Line
	3600 3600 3000 3600
Wire Wire Line
	3000 3600 3000 3550
Connection ~ 3600 3600
Wire Wire Line
	3000 3600 2400 3600
Wire Wire Line
	2400 3600 2400 3550
Connection ~ 3000 3600
Wire Wire Line
	2400 3600 1900 3600
Wire Wire Line
	1900 3600 1900 3400
Connection ~ 2400 3600
$EndSCHEMATC
