(module ADC128S102CIMT/NOPB (layer F.Cu)
  (fp_text reference REF** (at 0 0) (layer F.SilkS)
    (effects (font (size 1 1) (thickness .15)))
  )
  (fp_text value MTC16_TEX (at 0 0) (layer F.SilkS)
    (effects (font (size 1 1) (thickness .15)))
  )
  (fp_text user "Copyright 2016 Accelerated Designs. All rights reserved." (at 0 0) (layer Cmts.User)
    (effects (font (size .127 .127) (thickness .002)))
  )
  (fp_text user "*" (at 0 0) (layer F.SilkS)
    (effects (font (size 1 1) (thickness .15)))
  )
  (fp_text user "*" (at 0 0) (layer F.Fab)
    (effects (font (size 1 1) (thickness .15)))
  )
  (fp_text user "0.026in/0.65mm" (at -5.8928 -1.950001) (layer Dwgs.User)
    (effects (font (size 1 1) (thickness .15)))
  )
  (fp_text user "0.014in/0.356mm" (at 5.8928 -2.275) (layer Dwgs.User)
    (effects (font (size 1 1) (thickness .15)))
  )
  (fp_text user "0.224in/5.69mm" (at 0 -4.9657) (layer Dwgs.User)
    (effects (font (size 1 1) (thickness .15)))
  )
  (fp_text user "0.056in/1.422mm" (at -2.8448 4.3307) (layer Dwgs.User)
    (effects (font (size 1 1) (thickness .15)))
  )
  (fp_line (start -2.2479 -2.1226) (end -2.2479 -2.4274) (layer F.Fab) (width .1524))
  (fp_line (start -2.2479 -2.4274) (end -3.2004 -2.4274) (layer F.Fab) (width .1524))
  (fp_line (start -3.2004 -2.4274) (end -3.2004 -2.1226) (layer F.Fab) (width .1524))
  (fp_line (start -3.2004 -2.1226) (end -2.2479 -2.1226) (layer F.Fab) (width .1524))
  (fp_line (start -2.2479 -1.472601) (end -2.2479 -1.777401) (layer F.Fab) (width .1524))
  (fp_line (start -2.2479 -1.777401) (end -3.2004 -1.777401) (layer F.Fab) (width .1524))
  (fp_line (start -3.2004 -1.777401) (end -3.2004 -1.472601) (layer F.Fab) (width .1524))
  (fp_line (start -3.2004 -1.472601) (end -2.2479 -1.472601) (layer F.Fab) (width .1524))
  (fp_line (start -2.2479 -.822601) (end -2.2479 -1.127401) (layer F.Fab) (width .1524))
  (fp_line (start -2.2479 -1.127401) (end -3.2004 -1.127401) (layer F.Fab) (width .1524))
  (fp_line (start -3.2004 -1.127401) (end -3.2004 -.822601) (layer F.Fab) (width .1524))
  (fp_line (start -3.2004 -.822601) (end -2.2479 -.822601) (layer F.Fab) (width .1524))
  (fp_line (start -2.2479 -.172601) (end -2.2479 -.477401) (layer F.Fab) (width .1524))
  (fp_line (start -2.2479 -.477401) (end -3.2004 -.477401) (layer F.Fab) (width .1524))
  (fp_line (start -3.2004 -.477401) (end -3.2004 -.172601) (layer F.Fab) (width .1524))
  (fp_line (start -3.2004 -.172601) (end -2.2479 -.172601) (layer F.Fab) (width .1524))
  (fp_line (start -2.2479 .477399) (end -2.2479 .172599) (layer F.Fab) (width .1524))
  (fp_line (start -2.2479 .172599) (end -3.2004 .172599) (layer F.Fab) (width .1524))
  (fp_line (start -3.2004 .172599) (end -3.2004 .477399) (layer F.Fab) (width .1524))
  (fp_line (start -3.2004 .477399) (end -2.2479 .477399) (layer F.Fab) (width .1524))
  (fp_line (start -2.2479 1.127399) (end -2.2479 .822599) (layer F.Fab) (width .1524))
  (fp_line (start -2.2479 .822599) (end -3.2004 .822599) (layer F.Fab) (width .1524))
  (fp_line (start -3.2004 .822599) (end -3.2004 1.127399) (layer F.Fab) (width .1524))
  (fp_line (start -3.2004 1.127399) (end -2.2479 1.127399) (layer F.Fab) (width .1524))
  (fp_line (start -2.2479 1.777399) (end -2.2479 1.472599) (layer F.Fab) (width .1524))
  (fp_line (start -2.2479 1.472599) (end -3.2004 1.472599) (layer F.Fab) (width .1524))
  (fp_line (start -3.2004 1.472599) (end -3.2004 1.777399) (layer F.Fab) (width .1524))
  (fp_line (start -3.2004 1.777399) (end -2.2479 1.777399) (layer F.Fab) (width .1524))
  (fp_line (start -2.2479 2.427399) (end -2.2479 2.122599) (layer F.Fab) (width .1524))
  (fp_line (start -2.2479 2.122599) (end -3.2004 2.122599) (layer F.Fab) (width .1524))
  (fp_line (start -3.2004 2.122599) (end -3.2004 2.427399) (layer F.Fab) (width .1524))
  (fp_line (start -3.2004 2.427399) (end -2.2479 2.427399) (layer F.Fab) (width .1524))
  (fp_line (start 2.2479 2.1226) (end 2.2479 2.4274) (layer F.Fab) (width .1524))
  (fp_line (start 2.2479 2.4274) (end 3.2004 2.4274) (layer F.Fab) (width .1524))
  (fp_line (start 3.2004 2.4274) (end 3.2004 2.1226) (layer F.Fab) (width .1524))
  (fp_line (start 3.2004 2.1226) (end 2.2479 2.1226) (layer F.Fab) (width .1524))
  (fp_line (start 2.2479 1.472601) (end 2.2479 1.777401) (layer F.Fab) (width .1524))
  (fp_line (start 2.2479 1.777401) (end 3.2004 1.777401) (layer F.Fab) (width .1524))
  (fp_line (start 3.2004 1.777401) (end 3.2004 1.472601) (layer F.Fab) (width .1524))
  (fp_line (start 3.2004 1.472601) (end 2.2479 1.472601) (layer F.Fab) (width .1524))
  (fp_line (start 2.2479 .822601) (end 2.2479 1.127401) (layer F.Fab) (width .1524))
  (fp_line (start 2.2479 1.127401) (end 3.2004 1.127401) (layer F.Fab) (width .1524))
  (fp_line (start 3.2004 1.127401) (end 3.2004 .822601) (layer F.Fab) (width .1524))
  (fp_line (start 3.2004 .822601) (end 2.2479 .822601) (layer F.Fab) (width .1524))
  (fp_line (start 2.2479 .172601) (end 2.2479 .477401) (layer F.Fab) (width .1524))
  (fp_line (start 2.2479 .477401) (end 3.2004 .477401) (layer F.Fab) (width .1524))
  (fp_line (start 3.2004 .477401) (end 3.2004 .172601) (layer F.Fab) (width .1524))
  (fp_line (start 3.2004 .172601) (end 2.2479 .172601) (layer F.Fab) (width .1524))
  (fp_line (start 2.2479 -.477399) (end 2.2479 -.172599) (layer F.Fab) (width .1524))
  (fp_line (start 2.2479 -.172599) (end 3.2004 -.172599) (layer F.Fab) (width .1524))
  (fp_line (start 3.2004 -.172599) (end 3.2004 -.477399) (layer F.Fab) (width .1524))
  (fp_line (start 3.2004 -.477399) (end 2.2479 -.477399) (layer F.Fab) (width .1524))
  (fp_line (start 2.2479 -1.127399) (end 2.2479 -.822599) (layer F.Fab) (width .1524))
  (fp_line (start 2.2479 -.822599) (end 3.2004 -.822599) (layer F.Fab) (width .1524))
  (fp_line (start 3.2004 -.822599) (end 3.2004 -1.127399) (layer F.Fab) (width .1524))
  (fp_line (start 3.2004 -1.127399) (end 2.2479 -1.127399) (layer F.Fab) (width .1524))
  (fp_line (start 2.2479 -1.777399) (end 2.2479 -1.472599) (layer F.Fab) (width .1524))
  (fp_line (start 2.2479 -1.472599) (end 3.2004 -1.472599) (layer F.Fab) (width .1524))
  (fp_line (start 3.2004 -1.472599) (end 3.2004 -1.777399) (layer F.Fab) (width .1524))
  (fp_line (start 3.2004 -1.777399) (end 2.2479 -1.777399) (layer F.Fab) (width .1524))
  (fp_line (start 2.2479 -2.427399) (end 2.2479 -2.122599) (layer F.Fab) (width .1524))
  (fp_line (start 2.2479 -2.122599) (end 3.2004 -2.122599) (layer F.Fab) (width .1524))
  (fp_line (start 3.2004 -2.122599) (end 3.2004 -2.427399) (layer F.Fab) (width .1524))
  (fp_line (start 3.2004 -2.427399) (end 2.2479 -2.427399) (layer F.Fab) (width .1524))
  (fp_line (start -1.890224 2.6797) (end 1.890224 2.6797) (layer F.SilkS) (width .1524))
  (fp_line (start 1.890224 -2.6797) (end -1.890224 -2.6797) (layer F.SilkS) (width .1524))
  (fp_line (start -2.2479 2.5527) (end 2.2479 2.5527) (layer F.Fab) (width .1524))
  (fp_line (start 2.2479 2.5527) (end 2.2479 -2.5527) (layer F.Fab) (width .1524))
  (fp_line (start 2.2479 -2.5527) (end -2.2479 -2.5527) (layer F.Fab) (width .1524))
  (fp_line (start -2.2479 -2.5527) (end -2.2479 2.5527) (layer F.Fab) (width .1524))
  (fp_line (start -3.81 2.6508) (end -3.81 -2.6508) (layer F.CrtYd) (width .1524))
  (fp_line (start -3.81 -2.6508) (end -2.5019 -2.6508) (layer F.CrtYd) (width .1524))
  (fp_line (start -2.5019 -2.6508) (end -2.5019 -2.8067) (layer F.CrtYd) (width .1524))
  (fp_line (start -2.5019 -2.8067) (end 2.5019 -2.8067) (layer F.CrtYd) (width .1524))
  (fp_line (start 2.5019 -2.8067) (end 2.5019 -2.6508) (layer F.CrtYd) (width .1524))
  (fp_line (start 2.5019 -2.6508) (end 3.81 -2.6508) (layer F.CrtYd) (width .1524))
  (fp_line (start 3.81 -2.6508) (end 3.81 2.6508) (layer F.CrtYd) (width .1524))
  (fp_line (start 3.81 2.6508) (end 2.5019 2.6508) (layer F.CrtYd) (width .1524))
  (fp_line (start 2.5019 2.6508) (end 2.5019 2.8067) (layer F.CrtYd) (width .1524))
  (fp_line (start 2.5019 2.8067) (end -2.5019 2.8067) (layer F.CrtYd) (width .1524))
  (fp_line (start -2.5019 2.8067) (end -2.5019 2.6508) (layer F.CrtYd) (width .1524))
  (fp_line (start -2.5019 2.6508) (end -3.81 2.6508) (layer F.CrtYd) (width .1524))
  (fp_arc (start 0 -2.5527) (end .3048 -2.5527) (angle 180)(layer F.Fab) (width .1524))
  (fp_circle (center -3.9826 -2.275) (end -3.9064 -2.275) (layer F.SilkS) (width .1524))
  (fp_circle (center -2.1336 -2.275) (end -2.0574 -2.275) (layer F.Fab) (width .1524))
  (pad 1 smd rect (at -2.8448 -2.274999) (size 1.4224 .3556) (layers F.Cu F.Paste F.Mask))
  (pad 2 smd rect (at -2.8448 -1.625001) (size 1.4224 .3556) (layers F.Cu F.Paste F.Mask))
  (pad 3 smd rect (at -2.8448 -.974999) (size 1.4224 .3556) (layers F.Cu F.Paste F.Mask))
  (pad 4 smd rect (at -2.8448 -.325001) (size 1.4224 .3556) (layers F.Cu F.Paste F.Mask))
  (pad 5 smd rect (at -2.8448 .324998) (size 1.4224 .3556) (layers F.Cu F.Paste F.Mask))
  (pad 6 smd rect (at -2.8448 .974999) (size 1.4224 .3556) (layers F.Cu F.Paste F.Mask))
  (pad 7 smd rect (at -2.8448 1.624998) (size 1.4224 .3556) (layers F.Cu F.Paste F.Mask))
  (pad 8 smd rect (at -2.8448 2.274999) (size 1.4224 .3556) (layers F.Cu F.Paste F.Mask))
  (pad 9 smd rect (at 2.8448 2.274999) (size 1.4224 .3556) (layers F.Cu F.Paste F.Mask))
  (pad 10 smd rect (at 2.8448 1.625001) (size 1.4224 .3556) (layers F.Cu F.Paste F.Mask))
  (pad 11 smd rect (at 2.8448 .974999) (size 1.4224 .3556) (layers F.Cu F.Paste F.Mask))
  (pad 12 smd rect (at 2.8448 .325001) (size 1.4224 .3556) (layers F.Cu F.Paste F.Mask))
  (pad 13 smd rect (at 2.8448 -.324998) (size 1.4224 .3556) (layers F.Cu F.Paste F.Mask))
  (pad 14 smd rect (at 2.8448 -.974999) (size 1.4224 .3556) (layers F.Cu F.Paste F.Mask))
  (pad 15 smd rect (at 2.8448 -1.624998) (size 1.4224 .3556) (layers F.Cu F.Paste F.Mask))
  (pad 16 smd rect (at 2.8448 -2.274999) (size 1.4224 .3556) (layers F.Cu F.Paste F.Mask))
)
